Simulation Scenarios Analysis · PowerAnalytics.jl
…
UC Problem Parameters Results
┌──────────────────────────────────────────────────────┐
│ ActivePowerTimeSeriesParameter__HydroDispatch        │
│ ActivePowerTimeSeriesParameter__RenewableNonDispatch │
│ ActivePowerTimeSeriesParameter__RenewableDispatch    │
│ ActivePowerTimeSeriesParameter__PowerLoad            │
│ ActivePowerTimeSeriesParameter__HydroEnergyReservoir │
└──────────────────────────────────────────────────────┘

UC Problem Variables Results
┌────────────────────────────────────────────────┐
│ EnergyVariable__EnergyReservoirStorage         │
│ StopVariable__ThermalStandard                  │
│ ActivePowerOutVariable__EnergyReservoirStorage │
│ StartVariable__ThermalStandard                 │
│ OnVariable__ThermalStandard                    │
│ ActivePowerVariable__HydroDispatch             │
│ ActivePowerInVariable__EnergyReservoirStorage  │
│ ActivePowerVariable__ThermalStandard           │
│ ActivePowerVariable__HydroEnergyReservoir      │
│ ActivePowerVariable__RenewableDispatch         │
└────────────────────────────────────────────────┘
Notice that in the output, the names of the realized auxiliary variables, problem expressions, problem parameters, and problem variables available in the results are all listed.
Obtain the generation time series for each individual thermal component of the system
After confirming that the key ActivePowerVariable__ThermalStandard is present among the realized variables, we can now extract the generation time series for all the thermal (ThermalStandard) generators in our system. To achieve this, we follow two steps:
Create a ComponentSelector that identifies the component type we are interested in (in this case ThermalStandard). 

julia> thermal_standard_selector = make_selector(ThermalStandard)InfrastructureSystems.TypeComponentSelector(ThermalStandard, :each, "ThermalStandard")
Calculate the active power for the corresponding generators of this type using one of PowerAnalytics.jl defined metrics, namely calc_active_power, which retrieves the generation time series from the results. 

julia> PA.calc_active_power(thermal_standard_selector, results_uc)744×77 DataFrame
 Row │ DateTime             ThermalStandard__322_CT_6  ThermalStandard__321_CC ⋯
     │ DateTime             Float64                    Float64                 ⋯
─────┼──────────────────────────────────────────────────────────────────────────
   1 │ 2020-07-01T00:00:00                        0.0                    231.6 ⋯
   2 │ 2020-07-01T01:00:00                        0.0                    170.0
   3 │ 2020-07-01T02:00:00                        0.0                    170.0
   4 │ 2020-07-01T03:00:00                        0.0                    170.0
   5 │ 2020-07-01T04:00:00                        0.0                    170.0 ⋯
   6 │ 2020-07-01T05:00:00                        0.0                    170.0
   7 │ 2020-07-01T06:00:00                        0.0                    170.0
   8 │ 2020-07-01T07:00:00                        0.0                    170.0
  ⋮  │          ⋮                       ⋮                          ⋮           ⋱
 738 │ 2020-07-31T17:00:00                        0.0                    293.3 ⋯
 739 │ 2020-07-31T18:00:00                        0.0                    293.3
 740 │ 2020-07-31T19:00:00                        0.0                    355.0
 741 │ 2020-07-31T20:00:00                        0.0                    293.3
 742 │ 2020-07-31T21:00:00                        0.0                    293.3 ⋯
 743 │ 2020-07-31T22:00:00                        0.0                    251.8
 744 │ 2020-07-31T23:00:00                        0.0                    231.6
                                                 75 columns and 729 rows omitted
…
julia> area_columns = names(df_charging, Not("DateTime"))1-element Vector{String}:
 "3"
julia> for col in area_columns
           top_10_df = sort(df_charging[:, ["DateTime", col]], col, rev=true)[1:10, :]
       
           println("The top 10 hours of the month for Area $col are:")
           println(top_10_df)
           println()
       endThe top 10 hours of the month for Area 3 are:
10×2 DataFrame
 Row │ DateTime             3
     │ DateTime             Float64
─────┼──────────────────────────────
   1 │ 2020-07-01T06:00:00    100.0
   2 │ 2020-07-02T04:00:00    100.0
   3 │ 2020-07-04T07:00:00    100.0
   4 │ 2020-07-06T07:00:00    100.0
   5 │ 2020-07-07T07:00:00    100.0
   6 │ 2020-07-08T02:00:00    100.0
   7 │ 2020-07-10T02:00:00    100.0
   8 │ 2020-07-10T06:00:00    100.0
   9 │ 2020-07-12T07:00:00    100.0
  10 │ 2020-07-14T06:00:00    100.0
Computing multiple metrics at once
We can efficiently compute multiple metrics and add their time series in the same summary table by using the compute_all function. In this case, we are interested in the three most common storage built-in metrics: 
calc_active_power_in: charging power into the storage device
calc_active_power_in: active power output of the storage device
calc_active_power_in: amount of energy stored 
We can reuse the storage_area_selector defined in the previous subsection to perform spatial aggregation by Area. However, since the resulting summary table will contain a single column for each of the three metrics, we need to adjust the selector’s grouping using rebuild_selector to aggregate the time series across all storage components in the system, rather than by Area.

julia> compute_all(results_uc,
           [PA.calc_active_power_in, PA.calc_active_power_out, PA.calc_stored_energy],
           [rebuild_selector(storage_area_selector, groupby = :all), rebuild_selector(storage_area_selector, groupby = :all), rebuild_selector(storage_area_selector, groupby = :all)],
           ["Storage Charging", "Storage Discharging", "Stored Energy"])744×4 DataFrame
 Row │ DateTime             Storage Charging  Storage Discharging  Stored Ener ⋯
     │ DateTime             Float64           Float64              Float64     ⋯
─────┼──────────────────────────────────────────────────────────────────────────
   1 │ 2020-07-01T00:00:00          0.0                    0.0            0.0  ⋯
   2 │ 2020-07-01T01:00:00          0.0                    0.0            0.0
   3 │ 2020-07-01T02:00:00          0.0                    0.0            0.0
   4 │ 2020-07-01T03:00:00         48.4412                 0.0           48.44
   5 │ 2020-07-01T04:00:00          0.0                   48.4412         0.0  ⋯
   6 │ 2020-07-01T05:00:00         49.4862                 0.0           49.48
   7 │ 2020-07-01T06:00:00        100.0                    0.0          149.48
   8 │ 2020-07-01T07:00:00          0.513836               0.0          150.0
  ⋮  │          ⋮                  ⋮                   ⋮                 ⋮     ⋱
 738 │ 2020-07-31T17:00:00          0.0                    0.0          150.0  ⋯
 739 │ 2020-07-31T18:00:00          0.0                   50.0          100.0
 740 │ 2020-07-31T19:00:00          0.0                   50.0           50.0
 741 │ 2020-07-31T20:00:00          0.0                   50.0            0.0
 742 │ 2020-07-31T21:00:00          0.0                    0.0            0.0  ⋯
 743 │ 2020-07-31T22:00:00          0.0                    0.0            0.0
 744 │ 2020-07-31T23:00:00          0.0                    0.0            0.0
                                                   1 column and 729 rows omitted
…
